APPENDIX - Data wrangling and visualisation | Introduction to statistical data analysis in R
…
Show: Solution

Solution

calculating the mean life expectancy by continent

LifeExp %>% 
    group_by(Continent, Year) %>%
    summarise(mn = mean(Life.expectancy))

## `summarise()` has grouped output by 'Continent'. You can override using the
## `.groups` argument.

## # A tibble: 80 × 3
## # Groups:   Continent [5]
##    Continent  Year    mn
##    <chr>     <int> <dbl>
##  1 Africa     2000  54.5
##  2 Africa     2001  55.0
##  3 Africa     2002  55.3
##  4 Africa     2003  55.0
##  5 Africa     2004  55.7
##  6 Africa     2005  57.0
##  7 Africa     2006  57.2
##  8 Africa     2007  57.9
##  9 Africa     2008  58.8
## 10 Africa     2009  59.6
## # ℹ 70 more rows
…
